^D:\USERS\PICARDOPE\DESKTOP\IA\PRACTICA5_GERMANSOLDIER\SRC\AGENT.CC|D:\USERS\PICARDOPE\DESKTOP\IA\PRACTICA5_GERMANSOLDIER\SRC\GAMEMANAGER.CC|D:\USERS\PICARDOPE\DESKTOP\IA\PRACTICA5_GERMANSOLDIER\SRC\MAIN.CC|D:\USERS\PICARDOPE\DESKTOP\IA\PRACTICA5_GERMANSOLDIER\SRC\SOLDIER.CC
D:\USERS\PICARDOPE\DESKTOP\IA\PRACTICA5_GERMANSOLDIER\VSTUDIO\OBJ\X32\DEBUG\SRC\GAMEMANAGER.OBJ
D:\USERS\PICARDOPE\DESKTOP\IA\PRACTICA5_GERMANSOLDIER\VSTUDIO\OBJ\X32\DEBUG\SRC\SOLDIER.OBJ
D:\USERS\PICARDOPE\DESKTOP\IA\PRACTICA5_GERMANSOLDIER\VSTUDIO\OBJ\X32\DEBUG\SRC\MAIN.OBJ
D:\USERS\PICARDOPE\DESKTOP\IA\PRACTICA5_GERMANSOLDIER\VSTUDIO\OBJ\X32\DEBUG\SRC\AGENT.OBJ
^D:\USERS\PICARDOPE\DESKTOP\IA\PRACTICA5_GERMANSOLDIER\SRC\AGENT.CC
D:\USERS\PICARDOPE\DESKTOP\IA\PRACTICA5_GERMANSOLDIER\COMPILED\DEBUG\GERMANSOLDIER.PDB
^D:\USERS\PICARDOPE\DESKTOP\IA\PRACTICA5_GERMANSOLDIER\SRC\GAMEMANAGER.CC
D:\USERS\PICARDOPE\DESKTOP\IA\PRACTICA5_GERMANSOLDIER\COMPILED\DEBUG\GERMANSOLDIER.PDB
^D:\USERS\PICARDOPE\DESKTOP\IA\PRACTICA5_GERMANSOLDIER\SRC\MAIN.CC
D:\USERS\PICARDOPE\DESKTOP\IA\PRACTICA5_GERMANSOLDIER\COMPILED\DEBUG\GERMANSOLDIER.PDB
^D:\USERS\PICARDOPE\DESKTOP\IA\PRACTICA5_GERMANSOLDIER\SRC\SOLDIER.CC
D:\USERS\PICARDOPE\DESKTOP\IA\PRACTICA5_GERMANSOLDIER\COMPILED\DEBUG\GERMANSOLDIER.PDB
