^D:\ESAT\TERCERO\IA\PRACTICA3_MOVIMIENTO\SRC\AGENT.CC
/c /I..\INCLUDE /I..\SRC /I..\EXTERN\ESAT\INCLUDE /ZI /nologo /W3 /WX- /Od /Oy- /D _DEBUG /Gm- /EHsc /RTC1 /MDd /GS /Gy /fp:precise /Zc:wchar_t /Zc:forScope /Zc:inline /Fo"OBJ\X32\DEBUG\SRC\\" /Fd"..\COMPILED\DEBUG\MOVEMENT.PDB" /Gd /TP /analyze-    D:\ESAT\TERCERO\IA\PRACTICA3_MOVIMIENTO\SRC\AGENT.CC
^D:\ESAT\TERCERO\IA\PRACTICA3_MOVIMIENTO\SRC\GAMEMANAGER.CC
/c /I..\INCLUDE /I..\SRC /I..\EXTERN\ESAT\INCLUDE /ZI /nologo /W3 /WX- /Od /Oy- /D _DEBUG /Gm- /EHsc /RTC1 /MDd /GS /Gy /fp:precise /Zc:wchar_t /Zc:forScope /Zc:inline /Fo"OBJ\X32\DEBUG\SRC\\" /Fd"..\COMPILED\DEBUG\MOVEMENT.PDB" /Gd /TP /analyze-    D:\ESAT\TERCERO\IA\PRACTICA3_MOVIMIENTO\SRC\GAMEMANAGER.CC
^D:\ESAT\TERCERO\IA\PRACTICA3_MOVIMIENTO\SRC\SOLDIER.CC
/c /I..\INCLUDE /I..\SRC /I..\EXTERN\ESAT\INCLUDE /ZI /nologo /W3 /WX- /Od /Oy- /D _DEBUG /Gm- /EHsc /RTC1 /MDd /GS /Gy /fp:precise /Zc:wchar_t /Zc:forScope /Zc:inline /Fo"OBJ\X32\DEBUG\SRC\\" /Fd"..\COMPILED\DEBUG\MOVEMENT.PDB" /Gd /TP /analyze-    D:\ESAT\TERCERO\IA\PRACTICA3_MOVIMIENTO\SRC\SOLDIER.CC
^D:\ESAT\TERCERO\IA\PRACTICA3_MOVIMIENTO\SRC\MAIN.CC
/c /I..\INCLUDE /I..\SRC /I..\EXTERN\ESAT\INCLUDE /ZI /nologo /W3 /WX- /Od /Oy- /D _DEBUG /Gm- /EHsc /RTC1 /MDd /GS /Gy /fp:precise /Zc:wchar_t /Zc:forScope /Zc:inline /Fo"OBJ\X32\DEBUG\SRC\\" /Fd"..\COMPILED\DEBUG\MOVEMENT.PDB" /Gd /TP /analyze-    D:\ESAT\TERCERO\IA\PRACTICA3_MOVIMIENTO\SRC\MAIN.CC
